{
     "epsilon": 1e-07,
     "backend": "theano",
     "image_dim_ordering": "th",
     "floatx": "float32"
 }
 // {
    // "image_data_format": "channels_last",
    // "epsilon": 1e-07,
    // "floatx": "float32",
    // "backend": "tensorflow"
//}